<?xml version="1.0"?>
<svg width="650" height="170" >
  <g style="fill-opacity:1.0; stroke:black; stroke-width:1;">
    <text x="10" y="20"
          font-size="10.000000"
          fill="#000000"
          font-family="Helvetica"
          font-weight="normal"
          text-anchor="start"
          stroke="none">
    Statistics for TODO Sit-down Meeting for 2016
    </text>
    <text x="40" y="40"
          font-size="10.000000"
          fill="#000000"
          font-family="Helvetica"
          font-weight="normal"
          text-anchor="start"
          stroke="none">
    Jan
    </text>
    <text x="95" y="40"
          font-size="10.000000"
          fill="#000000"
          font-family="Helvetica"
          font-weight="normal"
          text-anchor="start"
          stroke="none">
    Feb
    </text>
    <text x="139" y="40"
          font-size="10.000000"
          fill="#000000"
          font-family="Helvetica"
          font-weight="normal"
          text-anchor="start"
          stroke="none">
    Mar
    </text>
    <text x="194" y="40"
          font-size="10.000000"
          fill="#000000"
          font-family="Helvetica"
          font-weight="normal"
          text-anchor="start"
          stroke="none">
    Apr
    </text>
    <text x="238" y="40"
          font-size="10.000000"
          fill="#000000"
          font-family="Helvetica"
          font-weight="normal"
          text-anchor="start"
          stroke="none">
    May
    </text>
    <text x="282" y="40"
          font-size="10.000000"
          fill="#000000"
          font-family="Helvetica"
          font-weight="normal"
          text-anchor="start"
          stroke="none">
    Jun
    </text>
    <text x="337" y="40"
          font-size="10.000000"
          fill="#000000"
          font-family="Helvetica"
          font-weight="normal"
          text-anchor="start"
          stroke="none">
    Jul
    </text>
    <text x="381" y="40"
          font-size="10.000000"
          fill="#000000"
          font-family="Helvetica"
          font-weight="normal"
          text-anchor="start"
          stroke="none">
    Aug
    </text>
    <text x="425" y="40"
          font-size="10.000000"
          fill="#000000"
          font-family="Helvetica"
          font-weight="normal"
          text-anchor="start"
          stroke="none">
    Sep
    </text>
    <text x="480" y="40"
          font-size="10.000000"
          fill="#000000"
          font-family="Helvetica"
          font-weight="normal"
          text-anchor="start"
          stroke="none">
    Oct
    </text>
    <text x="524" y="40"
          font-size="10.000000"
          fill="#000000"
          font-family="Helvetica"
          font-weight="normal"
          text-anchor="start"
          stroke="none">
    Nov
    </text>
    <text x="568" y="40"
          font-size="10.000000"
          fill="#000000"
          font-family="Helvetica"
          font-weight="normal"
          text-anchor="start"
          stroke="none">
    Dec
    </text>
    <text x="10" y="60"
          font-size="10.000000"
          fill="#000000"
          font-family="Helvetica"
          font-weight="normal"
          text-anchor="start"
          stroke="none">
    Mon
    </text>
    <text x="10" y="71"
          font-size="10.000000"
          fill="#000000"
          font-family="Helvetica"
          font-weight="normal"
          text-anchor="start"
          stroke="none">
    Tue
    </text>
    <text x="10" y="82"
          font-size="10.000000"
          fill="#000000"
          font-family="Helvetica"
          font-weight="normal"
          text-anchor="start"
          stroke="none">
    Wed
    </text>
    <text x="10" y="93"
          font-size="10.000000"
          fill="#000000"
          font-family="Helvetica"
          font-weight="normal"
          text-anchor="start"
          stroke="none">
    Thu
    </text>
    <text x="10" y="104"
          font-size="10.000000"
          fill="#000000"
          font-family="Helvetica"
          font-weight="normal"
          text-anchor="start"
          stroke="none">
    Fri
    </text>
    <text x="10" y="115"
          font-size="10.000000"
          fill="#000000"
          font-family="Helvetica"
          font-weight="normal"
          text-anchor="start"
          stroke="none">
    Sat
    </text>
    <text x="10" y="126"
          font-size="10.000000"
          fill="#000000"
          font-family="Helvetica"
          font-weight="normal"
          text-anchor="start"
          stroke="none">
    Sun
    </text>
    <rect x="40" y="94"
          height="10" width="10"
          style="fill:#646464;stroke:none"/>
    <rect x="40" y="105"
          height="10" width="10"
          style="fill:#646464;stroke:none"/>
    <rect x="40" y="116"
          height="10" width="10"
          style="fill:#646464;stroke:none"/>
    <rect x="51" y="50"
          height="10" width="10"
          style="fill:#646464;stroke:none"/>
    <rect x="51" y="61"
          height="10" width="10"
          style="fill:#646464;stroke:none"/>
    <rect x="51" y="72"
          height="10" width="10"
          style="fill:#646464;stroke:none"/>
    <rect x="51" y="83"
          height="10" width="10"
          style="fill:#646464;stroke:none"/>
    <rect x="51" y="94"
          height="10" width="10"
          style="fill:#646464;stroke:none"/>
    <rect x="51" y="105"
          height="10" width="10"
          style="fill:#646464;stroke:none"/>
    <rect x="51" y="116"
          height="10" width="10"
          style="fill:#646464;stroke:none"/>
    <rect x="62" y="50"
          height="10" width="10"
          style="fill:#646464;stroke:none"/>
    <rect x="62" y="61"
          height="10" width="10"
          style="fill:#646464;stroke:none"/>
    <rect x="62" y="72"
          height="10" width="10"
          style="fill:#646464;stroke:none"/>
    <rect x="62" y="83"
          height="10" width="10"
          style="fill:#646464;stroke:none"/>
    <rect x="62" y="94"
          height="10" width="10"
          style="fill:#646464;stroke:none"/>
    <rect x="62" y="105"
          height="10" width="10"
          style="fill:#646464;stroke:none"/>
    <rect x="62" y="116"
          height="10" width="10"
          style="fill:#646464;stroke:none"/>
    <rect x="73" y="50"
          height="10" width="10"
          style="fill:#646464;stroke:none"/>
    <rect x="73" y="61"
          height="10" width="10"
          style="fill:#646464;stroke:none"/>
    <rect x="73" y="72"
          height="10" width="10"
          style="fill:#646464;stroke:none"/>
    <rect x="73" y="83"
          height="10" width="10"
          style="fill:#646464;stroke:none"/>
    <rect x="73" y="94"
          height="10" width="10"
          style="fill:#646464;stroke:none"/>
    <rect x="73" y="105"
          height="10" width="10"
          style="fill:#646464;stroke:none"/>
    <rect x="73" y="116"
          height="10" width="10"
          style="fill:#646464;stroke:none"/>
    <rect x="84" y="50"
          height="10" width="10"
          style="fill:#646464;stroke:none"/>
    <rect x="84" y="61"
          height="10" width="10"
          style="fill:#646464;stroke:none"/>
    <rect x="84" y="72"
          height="10" width="10"
          style="fill:#646464;stroke:none"/>
    <rect x="84" y="83"
          height="10" width="10"
          style="fill:#646464;stroke:none"/>
    <rect x="84" y="94"
          height="10" width="10"
          style="fill:#646464;stroke:none"/>
    <rect x="84" y="105"
          height="10" width="10"
          style="fill:#646464;stroke:none"/>
    <rect x="84" y="116"
          height="10" width="10"
          style="fill:#646464;stroke:none"/>
    <rect x="95" y="50"
          height="10" width="10"
          style="fill:#646464;stroke:none"/>
    <rect x="95" y="61"
          height="10" width="10"
          style="fill:#646464;stroke:none"/>
    <rect x="95" y="72"
          height="10" width="10"
          style="fill:#646464;stroke:none"/>
    <rect x="95" y="83"
          height="10" width="10"
          style="fill:#646464;stroke:none"/>
    <rect x="95" y="94"
          height="10" width="10"
          style="fill:#646464;stroke:none"/>
    <rect x="95" y="105"
          height="10" width="10"
          style="fill:#646464;stroke:none"/>
    <rect x="95" y="116"
          height="10" width="10"
          style="fill:#646464;stroke:none"/>
    <rect x="106" y="50"
          height="10" width="10"
          style="fill:#646464;stroke:none"/>
    <rect x="106" y="61"
          height="10" width="10"
          style="fill:#646464;stroke:none"/>
    <rect x="106" y="72"
          height="10" width="10"
          style="fill:#646464;stroke:none"/>
    <rect x="106" y="83"
          height="10" width="10"
          style="fill:#646464;stroke:none"/>
    <rect x="106" y="94"
          height="10" width="10"
          style="fill:#646464;stroke:none"/>
    <rect x="106" y="105"
          height="10" width="10"
          style="fill:#646464;stroke:none"/>
    <rect x="106" y="116"
          height="10" width="10"
          style="fill:#646464;stroke:none"/>
    <rect x="117" y="50"
          height="10" width="10"
          style="fill:#646464;stroke:none"/>
    <rect x="117" y="61"
          height="10" width="10"
          style="fill:#646464;stroke:none"/>
    <rect x="117" y="72"
          height="10" width="10"
          style="fill:#646464;stroke:none"/>
    <rect x="117" y="83"
          height="10" width="10"
          style="fill:#646464;stroke:none"/>
    <rect x="117" y="94"
          height="10" width="10"
          style="fill:#646464;stroke:none"/>
    <rect x="117" y="105"
          height="10" width="10"
          style="fill:#646464;stroke:none"/>
    <rect x="117" y="116"
          height="10" width="10"
          style="fill:#646464;stroke:none"/>
    <rect x="128" y="50"
          height="10" width="10"
          style="fill:#646464;stroke:none"/>
    <rect x="128" y="61"
          height="10" width="10"
          style="fill:#646464;stroke:none"/>
    <rect x="128" y="72"
          height="10" width="10"
          style="fill:#646464;stroke:none"/>
    <rect x="128" y="83"
          height="10" width="10"
          style="fill:#646464;stroke:none"/>
    <rect x="128" y="94"
          height="10" width="10"
          style="fill:#646464;stroke:none"/>
    <rect x="128" y="105"
          height="10" width="10"
          style="fill:#646464;stroke:none"/>
    <rect x="128" y="116"
          height="10" width="10"
          style="fill:#646464;stroke:none"/>
    <rect x="139" y="50"
          height="10" width="10"
          style="fill:#646464;stroke:none"/>
    <rect x="139" y="61"
          height="10" width="10"
          style="fill:#646464;stroke:none"/>
    <rect x="139" y="72"
          height="10" width="10"
          style="fill:#646464;stroke:none"/>
    <rect x="139" y="83"
          height="10" width="10"
          style="fill:#646464;stroke:none"/>
    <rect x="139" y="94"
          height="10" width="10"
          style="fill:#646464;stroke:none"/>
    <rect x="139" y="105"
          height="10" width="10"
          style="fill:#646464;stroke:none"/>
    <rect x="139" y="116"
          height="10" width="10"
          style="fill:#646464;stroke:none"/>
    <rect x="150" y="50"
          height="10" width="10"
          style="fill:#646464;stroke:none"/>
    <rect x="150" y="61"
          height="10" width="10"
          style="fill:#646464;stroke:none"/>
    <rect x="150" y="72"
          height="10" width="10"
          style="fill:#646464;stroke:none"/>
    <rect x="150" y="83"
          height="10" width="10"
          style="fill:#646464;stroke:none"/>
    <rect x="150" y="94"
          height="10" width="10"
          style="fill:#646464;stroke:none"/>
    <rect x="150" y="105"
          height="10" width="10"
          style="fill:#646464;stroke:none"/>
    <rect x="150" y="116"
          height="10" width="10"
          style="fill:#646464;stroke:none"/>
    <rect x="161" y="50"
          height="10" width="10"
          style="fill:#646464;stroke:none"/>
    <rect x="161" y="61"
          height="10" width="10"
          style="fill:#646464;stroke:none"/>
    <rect x="161" y="72"
          height="10" width="10"
          style="fill:#646464;stroke:none"/>
    <rect x="161" y="83"
          height="10" width="10"
          style="fill:#646464;stroke:none"/>
    <rect x="161" y="94"
          height="10" width="10"
          style="fill:#646464;stroke:none"/>
    <rect x="161" y="105"
          height="10" width="10"
          style="fill:#646464;stroke:none"/>
    <rect x="161" y="116"
          height="10" width="10"
          style="fill:#646464;stroke:none"/>
    <rect x="172" y="50"
          height="10" width="10"
          style="fill:#646464;stroke:none"/>
    <rect x="172" y="61"
          height="10" width="10"
          style="fill:#646464;stroke:none"/>
    <rect x="172" y="72"
          height="10" width="10"
          style="fill:#646464;stroke:none"/>
    <rect x="172" y="83"
          height="10" width="10"
          style="fill:#646464;stroke:none"/>
    <rect x="172" y="94"
          height="10" width="10"
          style="fill:#646464;stroke:none"/>
    <rect x="172" y="105"
          height="10" width="10"
          style="fill:#646464;stroke:none"/>
    <rect x="172" y="116"
          height="10" width="10"
          style="fill:#646464;stroke:none"/>
    <rect x="183" y="50"
          height="10" width="10"
          style="fill:#646464;stroke:none"/>
    <rect x="183" y="61"
          height="10" width="10"
          style="fill:#646464;stroke:none"/>
    <rect x="183" y="72"
          height="10" width="10"
          style="fill:#646464;stroke:none"/>
    <rect x="183" y="83"
          height="10" width="10"
          style="fill:#646464;stroke:none"/>
    <rect x="183" y="94"
          height="10" width="10"
          style="fill:#646464;stroke:none"/>
    <rect x="183" y="105"
          height="10" width="10"
          style="fill:#646464;stroke:none"/>
    <rect x="183" y="116"
          height="10" width="10"
          style="fill:#646464;stroke:none"/>
    <rect x="194" y="50"
          height="10" width="10"
          style="fill:#646464;stroke:none"/>
    <rect x="194" y="61"
          height="10" width="10"
          style="fill:#646464;stroke:none"/>
    <rect x="194" y="72"
          height="10" width="10"
          style="fill:#646464;stroke:none"/>
    <rect x="194" y="83"
          height="10" width="10"
          style="fill:#646464;stroke:none"/>
    <rect x="194" y="94"
          height="10" width="10"
          style="fill:#646464;stroke:none"/>
    <rect x="194" y="105"
          height="10" width="10"
          style="fill:#646464;stroke:none"/>
    <rect x="194" y="116"
          height="10" width="10"
          style="fill:#646464;stroke:none"/>
    <rect x="205" y="50"
          height="10" width="10"
          style="fill:#646464;stroke:none"/>
    <rect x="205" y="61"
          height="10" width="10"
          style="fill:#646464;stroke:none"/>
    <rect x="205" y="72"
          height="10" width="10"
          style="fill:#646464;stroke:none"/>
    <rect x="205" y="83"
          height="10" width="10"
          style="fill:#646464;stroke:none"/>
    <rect x="205" y="94"
          height="10" width="10"
          style="fill:#646464;stroke:none"/>
    <rect x="205" y="105"
          height="10" width="10"
          style="fill:#646464;stroke:none"/>
    <rect x="205" y="116"
          height="10" width="10"
          style="fill:#646464;stroke:none"/>
    <rect x="216" y="50"
          height="10" width="10"
          style="fill:#00ff00;stroke:none"/>
    <rect x="216" y="61"
          height="10" width="10"
          style="fill:#646464;stroke:none"/>
    <rect x="216" y="72"
          height="10" width="10"
          style="fill:#646464;stroke:none"/>
    <rect x="216" y="83"
          height="10" width="10"
          style="fill:#646464;stroke:none"/>
    <rect x="216" y="94"
          height="10" width="10"
          style="fill:#646464;stroke:none"/>
    <rect x="216" y="105"
          height="10" width="10"
          style="fill:#646464;stroke:none"/>
    <rect x="216" y="116"
          height="10" width="10"
          style="fill:#646464;stroke:none"/>
    <rect x="227" y="50"
          height="10" width="10"
          style="fill:#00ff00;stroke:none"/>
    <rect x="227" y="61"
          height="10" width="10"
          style="fill:#646464;stroke:none"/>
    <rect x="227" y="72"
          height="10" width="10"
          style="fill:#646464;stroke:none"/>
    <rect x="227" y="83"
          height="10" width="10"
          style="fill:#646464;stroke:none"/>
    <rect x="227" y="94"
          height="10" width="10"
          style="fill:#646464;stroke:none"/>
    <rect x="227" y="105"
          height="10" width="10"
          style="fill:#646464;stroke:none"/>
    <rect x="227" y="116"
          height="10" width="10"
          style="fill:#646464;stroke:none"/>
    <rect x="238" y="50"
          height="10" width="10"
          style="fill:#00ff00;stroke:none"/>
    <rect x="238" y="61"
          height="10" width="10"
          style="fill:#646464;stroke:none"/>
    <rect x="238" y="72"
          height="10" width="10"
          style="fill:#646464;stroke:none"/>
    <rect x="238" y="83"
          height="10" width="10"
          style="fill:#646464;stroke:none"/>
    <rect x="238" y="94"
          height="10" width="10"
          style="fill:#646464;stroke:none"/>
    <rect x="238" y="105"
          height="10" width="10"
          style="fill:#646464;stroke:none"/>
    <rect x="238" y="116"
          height="10" width="10"
          style="fill:#646464;stroke:none"/>
    <rect x="249" y="50"
          height="10" width="10"
          style="fill:#00ff00;stroke:none"/>
    <rect x="249" y="61"
          height="10" width="10"
          style="fill:#646464;stroke:none"/>
    <rect x="249" y="72"
          height="10" width="10"
          style="fill:#646464;stroke:none"/>
    <rect x="249" y="83"
          height="10" width="10"
          style="fill:#646464;stroke:none"/>
    <rect x="249" y="94"
          height="10" width="10"
          style="fill:#646464;stroke:none"/>
    <rect x="249" y="105"
          height="10" width="10"
          style="fill:#646464;stroke:none"/>
    <rect x="249" y="116"
          height="10" width="10"
          style="fill:#646464;stroke:none"/>
    <rect x="260" y="50"
          height="10" width="10"
          style="fill:#00ff00;stroke:none"/>
    <rect x="260" y="61"
          height="10" width="10"
          style="fill:#646464;stroke:none"/>
    <rect x="260" y="72"
          height="10" width="10"
          style="fill:#646464;stroke:none"/>
    <rect x="260" y="83"
          height="10" width="10"
          style="fill:#646464;stroke:none"/>
    <rect x="260" y="94"
          height="10" width="10"
          style="fill:#646464;stroke:none"/>
    <rect x="260" y="105"
          height="10" width="10"
          style="fill:#646464;stroke:none"/>
    <rect x="260" y="116"
          height="10" width="10"
          style="fill:#646464;stroke:none"/>
    <rect x="271" y="50"
          height="10" width="10"
          style="fill:#ff0000;stroke:none"/>
    <rect x="271" y="61"
          height="10" width="10"
          style="fill:#646464;stroke:none"/>
    <rect x="271" y="72"
          height="10" width="10"
          style="fill:#646464;stroke:none"/>
    <rect x="271" y="83"
          height="10" width="10"
          style="fill:#646464;stroke:none"/>
    <rect x="271" y="94"
          height="10" width="10"
          style="fill:#646464;stroke:none"/>
    <rect x="271" y="105"
          height="10" width="10"
          style="fill:#646464;stroke:none"/>
    <rect x="271" y="116"
          height="10" width="10"
          style="fill:#646464;stroke:none"/>
    <rect x="282" y="50"
          height="10" width="10"
          style="fill:#00ff00;stroke:none"/>
    <rect x="282" y="61"
          height="10" width="10"
          style="fill:#646464;stroke:none"/>
    <rect x="282" y="72"
          height="10" width="10"
          style="fill:#646464;stroke:none"/>
    <rect x="282" y="83"
          height="10" width="10"
          style="fill:#646464;stroke:none"/>
    <rect x="282" y="94"
          height="10" width="10"
          style="fill:#646464;stroke:none"/>
    <rect x="282" y="105"
          height="10" width="10"
          style="fill:#646464;stroke:none"/>
    <rect x="282" y="116"
          height="10" width="10"
          style="fill:#646464;stroke:none"/>
    <rect x="293" y="50"
          height="10" width="10"
          style="fill:#0000ff;stroke:none"/>
    <rect x="293" y="61"
          height="10" width="10"
          style="fill:#646464;stroke:none"/>
    <rect x="293" y="72"
          height="10" width="10"
          style="fill:#646464;stroke:none"/>
    <rect x="293" y="83"
          height="10" width="10"
          style="fill:#646464;stroke:none"/>
    <rect x="293" y="94"
          height="10" width="10"
          style="fill:#646464;stroke:none"/>
    <rect x="293" y="105"
          height="10" width="10"
          style="fill:#646464;stroke:none"/>
    <rect x="293" y="116"
          height="10" width="10"
          style="fill:#646464;stroke:none"/>
    <rect x="304" y="50"
          height="10" width="10"
          style="fill:#00ff00;stroke:none"/>
    <rect x="304" y="61"
          height="10" width="10"
          style="fill:#646464;stroke:none"/>
    <rect x="304" y="72"
          height="10" width="10"
          style="fill:#646464;stroke:none"/>
    <rect x="304" y="83"
          height="10" width="10"
          style="fill:#646464;stroke:none"/>
    <rect x="304" y="94"
          height="10" width="10"
          style="fill:#646464;stroke:none"/>
    <rect x="304" y="105"
          height="10" width="10"
          style="fill:#646464;stroke:none"/>
    <rect x="304" y="116"
          height="10" width="10"
          style="fill:#646464;stroke:none"/>
    <rect x="315" y="50"
          height="10" width="10"
          style="fill:#00ff00;stroke:none"/>
    <rect x="315" y="61"
          height="10" width="10"
          style="fill:#646464;stroke:none"/>
    <rect x="315" y="72"
          height="10" width="10"
          style="fill:#646464;stroke:none"/>
    <rect x="315" y="83"
          height="10" width="10"
          style="fill:#646464;stroke:none"/>
    <rect x="315" y="94"
          height="10" width="10"
          style="fill:#646464;stroke:none"/>
    <rect x="315" y="105"
          height="10" width="10"
          style="fill:#646464;stroke:none"/>
    <rect x="315" y="116"
          height="10" width="10"
          style="fill:#646464;stroke:none"/>
    <rect x="326" y="50"
          height="10" width="10"
          style="fill:#ff0000;stroke:none"/>
    <rect x="326" y="61"
          height="10" width="10"
          style="fill:#646464;stroke:none"/>
    <rect x="326" y="72"
          height="10" width="10"
          style="fill:#646464;stroke:none"/>
    <rect x="326" y="83"
          height="10" width="10"
          style="fill:#646464;stroke:none"/>
    <rect x="326" y="94"
          height="10" width="10"
          style="fill:#646464;stroke:none"/>
    <rect x="326" y="105"
          height="10" width="10"
          style="fill:#646464;stroke:none"/>
    <rect x="326" y="116"
          height="10" width="10"
          style="fill:#646464;stroke:none"/>
    <rect x="337" y="50"
          height="10" width="10"
          style="fill:#646464;stroke:none"/>
    <rect x="337" y="61"
          height="10" width="10"
          style="fill:#646464;stroke:none"/>
    <rect x="337" y="72"
          height="10" width="10"
          style="fill:#646464;stroke:none"/>
    <rect x="337" y="83"
          height="10" width="10"
          style="fill:#646464;stroke:none"/>
    <rect x="337" y="94"
          height="10" width="10"
          style="fill:#646464;stroke:none"/>
    <rect x="337" y="105"
          height="10" width="10"
          style="fill:#646464;stroke:none"/>
    <rect x="337" y="116"
          height="10" width="10"
          style="fill:#646464;stroke:none"/>
    <rect x="348" y="50"
          height="10" width="10"
          style="fill:#646464;stroke:none"/>
    <rect x="348" y="61"
          height="10" width="10"
          style="fill:#646464;stroke:none"/>
    <rect x="348" y="72"
          height="10" width="10"
          style="fill:#646464;stroke:none"/>
    <rect x="348" y="83"
          height="10" width="10"
          style="fill:#646464;stroke:none"/>
    <rect x="348" y="94"
          height="10" width="10"
          style="fill:#646464;stroke:none"/>
    <rect x="348" y="105"
          height="10" width="10"
          style="fill:#646464;stroke:none"/>
    <rect x="348" y="116"
          height="10" width="10"
          style="fill:#646464;stroke:none"/>
    <rect x="359" y="50"
          height="10" width="10"
          style="fill:#646464;stroke:none"/>
    <rect x="359" y="61"
          height="10" width="10"
          style="fill:#646464;stroke:none"/>
    <rect x="359" y="72"
          height="10" width="10"
          style="fill:#646464;stroke:none"/>
    <rect x="359" y="83"
          height="10" width="10"
          style="fill:#646464;stroke:none"/>
    <rect x="359" y="94"
          height="10" width="10"
          style="fill:#646464;stroke:none"/>
    <rect x="359" y="105"
          height="10" width="10"
          style="fill:#646464;stroke:none"/>
    <rect x="359" y="116"
          height="10" width="10"
          style="fill:#646464;stroke:none"/>
    <rect x="370" y="50"
          height="10" width="10"
          style="fill:#646464;stroke:none"/>
    <rect x="370" y="61"
          height="10" width="10"
          style="fill:#646464;stroke:none"/>
    <rect x="370" y="72"
          height="10" width="10"
          style="fill:#646464;stroke:none"/>
    <rect x="370" y="83"
          height="10" width="10"
          style="fill:#646464;stroke:none"/>
    <rect x="370" y="94"
          height="10" width="10"
          style="fill:#646464;stroke:none"/>
    <rect x="370" y="105"
          height="10" width="10"
          style="fill:#646464;stroke:none"/>
    <rect x="370" y="116"
          height="10" width="10"
          style="fill:#646464;stroke:none"/>
    <rect x="381" y="50"
          height="10" width="10"
          style="fill:#646464;stroke:none"/>
    <rect x="381" y="61"
          height="10" width="10"
          style="fill:#646464;stroke:none"/>
    <rect x="381" y="72"
          height="10" width="10"
          style="fill:#646464;stroke:none"/>
    <rect x="381" y="83"
          height="10" width="10"
          style="fill:#646464;stroke:none"/>
    <rect x="381" y="94"
          height="10" width="10"
          style="fill:#646464;stroke:none"/>
    <rect x="381" y="105"
          height="10" width="10"
          style="fill:#646464;stroke:none"/>
    <rect x="381" y="116"
          height="10" width="10"
          style="fill:#646464;stroke:none"/>
    <rect x="392" y="50"
          height="10" width="10"
          style="fill:#646464;stroke:none"/>
    <rect x="392" y="61"
          height="10" width="10"
          style="fill:#646464;stroke:none"/>
    <rect x="392" y="72"
          height="10" width="10"
          style="fill:#646464;stroke:none"/>
    <rect x="392" y="83"
          height="10" width="10"
          style="fill:#646464;stroke:none"/>
    <rect x="392" y="94"
          height="10" width="10"
          style="fill:#646464;stroke:none"/>
    <rect x="392" y="105"
          height="10" width="10"
          style="fill:#646464;stroke:none"/>
    <rect x="392" y="116"
          height="10" width="10"
          style="fill:#646464;stroke:none"/>
    <rect x="403" y="50"
          height="10" width="10"
          style="fill:#646464;stroke:none"/>
    <rect x="403" y="61"
          height="10" width="10"
          style="fill:#646464;stroke:none"/>
    <rect x="403" y="72"
          height="10" width="10"
          style="fill:#646464;stroke:none"/>
    <rect x="403" y="83"
          height="10" width="10"
          style="fill:#646464;stroke:none"/>
    <rect x="403" y="94"
          height="10" width="10"
          style="fill:#646464;stroke:none"/>
    <rect x="403" y="105"
          height="10" width="10"
          style="fill:#646464;stroke:none"/>
    <rect x="403" y="116"
          height="10" width="10"
          style="fill:#646464;stroke:none"/>
    <rect x="414" y="50"
          height="10" width="10"
          style="fill:#646464;stroke:none"/>
    <rect x="414" y="61"
          height="10" width="10"
          style="fill:#646464;stroke:none"/>
    <rect x="414" y="72"
          height="10" width="10"
          style="fill:#646464;stroke:none"/>
    <rect x="414" y="83"
          height="10" width="10"
          style="fill:#646464;stroke:none"/>
    <rect x="414" y="94"
          height="10" width="10"
          style="fill:#646464;stroke:none"/>
    <rect x="414" y="105"
          height="10" width="10"
          style="fill:#646464;stroke:none"/>
    <rect x="414" y="116"
          height="10" width="10"
          style="fill:#646464;stroke:none"/>
    <rect x="425" y="50"
          height="10" width="10"
          style="fill:#646464;stroke:none"/>
    <rect x="425" y="61"
          height="10" width="10"
          style="fill:#646464;stroke:none"/>
    <rect x="425" y="72"
          height="10" width="10"
          style="fill:#646464;stroke:none"/>
    <rect x="425" y="83"
          height="10" width="10"
          style="fill:#646464;stroke:none"/>
    <rect x="425" y="94"
          height="10" width="10"
          style="fill:#646464;stroke:none"/>
    <rect x="425" y="105"
          height="10" width="10"
          style="fill:#646464;stroke:none"/>
    <rect x="425" y="116"
          height="10" width="10"
          style="fill:#646464;stroke:none"/>
    <rect x="436" y="50"
          height="10" width="10"
          style="fill:#646464;stroke:none"/>
    <rect x="436" y="61"
          height="10" width="10"
          style="fill:#646464;stroke:none"/>
    <rect x="436" y="72"
          height="10" width="10"
          style="fill:#646464;stroke:none"/>
    <rect x="436" y="83"
          height="10" width="10"
          style="fill:#646464;stroke:none"/>
    <rect x="436" y="94"
          height="10" width="10"
          style="fill:#646464;stroke:none"/>
    <rect x="436" y="105"
          height="10" width="10"
          style="fill:#646464;stroke:none"/>
    <rect x="436" y="116"
          height="10" width="10"
          style="fill:#646464;stroke:none"/>
    <rect x="447" y="50"
          height="10" width="10"
          style="fill:#646464;stroke:none"/>
    <rect x="447" y="61"
          height="10" width="10"
          style="fill:#646464;stroke:none"/>
    <rect x="447" y="72"
          height="10" width="10"
          style="fill:#646464;stroke:none"/>
    <rect x="447" y="83"
          height="10" width="10"
          style="fill:#646464;stroke:none"/>
    <rect x="447" y="94"
          height="10" width="10"
          style="fill:#646464;stroke:none"/>
    <rect x="447" y="105"
          height="10" width="10"
          style="fill:#646464;stroke:none"/>
    <rect x="447" y="116"
          height="10" width="10"
          style="fill:#646464;stroke:none"/>
    <rect x="458" y="50"
          height="10" width="10"
          style="fill:#646464;stroke:none"/>
    <rect x="458" y="61"
          height="10" width="10"
          style="fill:#646464;stroke:none"/>
    <rect x="458" y="72"
          height="10" width="10"
          style="fill:#646464;stroke:none"/>
    <rect x="458" y="83"
          height="10" width="10"
          style="fill:#646464;stroke:none"/>
    <rect x="458" y="94"
          height="10" width="10"
          style="fill:#646464;stroke:none"/>
    <rect x="458" y="105"
          height="10" width="10"
          style="fill:#646464;stroke:none"/>
    <rect x="458" y="116"
          height="10" width="10"
          style="fill:#646464;stroke:none"/>
    <rect x="469" y="50"
          height="10" width="10"
          style="fill:#646464;stroke:none"/>
    <rect x="469" y="61"
          height="10" width="10"
          style="fill:#646464;stroke:none"/>
    <rect x="469" y="72"
          height="10" width="10"
          style="fill:#646464;stroke:none"/>
    <rect x="469" y="83"
          height="10" width="10"
          style="fill:#646464;stroke:none"/>
    <rect x="469" y="94"
          height="10" width="10"
          style="fill:#646464;stroke:none"/>
    <rect x="469" y="105"
          height="10" width="10"
          style="fill:#646464;stroke:none"/>
    <rect x="469" y="116"
          height="10" width="10"
          style="fill:#646464;stroke:none"/>
    <rect x="480" y="50"
          height="10" width="10"
          style="fill:#646464;stroke:none"/>
    <rect x="480" y="61"
          height="10" width="10"
          style="fill:#646464;stroke:none"/>
    <rect x="480" y="72"
          height="10" width="10"
          style="fill:#646464;stroke:none"/>
    <rect x="480" y="83"
          height="10" width="10"
          style="fill:#646464;stroke:none"/>
    <rect x="480" y="94"
          height="10" width="10"
          style="fill:#646464;stroke:none"/>
    <rect x="480" y="105"
          height="10" width="10"
          style="fill:#646464;stroke:none"/>
    <rect x="480" y="116"
          height="10" width="10"
          style="fill:#646464;stroke:none"/>
    <rect x="491" y="50"
          height="10" width="10"
          style="fill:#646464;stroke:none"/>
    <rect x="491" y="61"
          height="10" width="10"
          style="fill:#646464;stroke:none"/>
    <rect x="491" y="72"
          height="10" width="10"
          style="fill:#646464;stroke:none"/>
    <rect x="491" y="83"
          height="10" width="10"
          style="fill:#646464;stroke:none"/>
    <rect x="491" y="94"
          height="10" width="10"
          style="fill:#646464;stroke:none"/>
    <rect x="491" y="105"
          height="10" width="10"
          style="fill:#646464;stroke:none"/>
    <rect x="491" y="116"
          height="10" width="10"
          style="fill:#646464;stroke:none"/>
    <rect x="502" y="50"
          height="10" width="10"
          style="fill:#646464;stroke:none"/>
    <rect x="502" y="61"
          height="10" width="10"
          style="fill:#646464;stroke:none"/>
    <rect x="502" y="72"
          height="10" width="10"
          style="fill:#646464;stroke:none"/>
    <rect x="502" y="83"
          height="10" width="10"
          style="fill:#646464;stroke:none"/>
    <rect x="502" y="94"
          height="10" width="10"
          style="fill:#646464;stroke:none"/>
    <rect x="502" y="105"
          height="10" width="10"
          style="fill:#646464;stroke:none"/>
    <rect x="502" y="116"
          height="10" width="10"
          style="fill:#646464;stroke:none"/>
    <rect x="513" y="50"
          height="10" width="10"
          style="fill:#646464;stroke:none"/>
    <rect x="513" y="61"
          height="10" width="10"
          style="fill:#646464;stroke:none"/>
    <rect x="513" y="72"
          height="10" width="10"
          style="fill:#646464;stroke:none"/>
    <rect x="513" y="83"
          height="10" width="10"
          style="fill:#646464;stroke:none"/>
    <rect x="513" y="94"
          height="10" width="10"
          style="fill:#646464;stroke:none"/>
    <rect x="513" y="105"
          height="10" width="10"
          style="fill:#646464;stroke:none"/>
    <rect x="513" y="116"
          height="10" width="10"
          style="fill:#646464;stroke:none"/>
    <rect x="524" y="50"
          height="10" width="10"
          style="fill:#646464;stroke:none"/>
    <rect x="524" y="61"
          height="10" width="10"
          style="fill:#646464;stroke:none"/>
    <rect x="524" y="72"
          height="10" width="10"
          style="fill:#646464;stroke:none"/>
    <rect x="524" y="83"
          height="10" width="10"
          style="fill:#646464;stroke:none"/>
    <rect x="524" y="94"
          height="10" width="10"
          style="fill:#646464;stroke:none"/>
    <rect x="524" y="105"
          height="10" width="10"
          style="fill:#646464;stroke:none"/>
    <rect x="524" y="116"
          height="10" width="10"
          style="fill:#646464;stroke:none"/>
    <rect x="535" y="50"
          height="10" width="10"
          style="fill:#646464;stroke:none"/>
    <rect x="535" y="61"
          height="10" width="10"
          style="fill:#646464;stroke:none"/>
    <rect x="535" y="72"
          height="10" width="10"
          style="fill:#646464;stroke:none"/>
    <rect x="535" y="83"
          height="10" width="10"
          style="fill:#646464;stroke:none"/>
    <rect x="535" y="94"
          height="10" width="10"
          style="fill:#646464;stroke:none"/>
    <rect x="535" y="105"
          height="10" width="10"
          style="fill:#646464;stroke:none"/>
    <rect x="535" y="116"
          height="10" width="10"
          style="fill:#646464;stroke:none"/>
    <rect x="546" y="50"
          height="10" width="10"
          style="fill:#646464;stroke:none"/>
    <rect x="546" y="61"
          height="10" width="10"
          style="fill:#646464;stroke:none"/>
    <rect x="546" y="72"
          height="10" width="10"
          style="fill:#646464;stroke:none"/>
    <rect x="546" y="83"
          height="10" width="10"
          style="fill:#646464;stroke:none"/>
    <rect x="546" y="94"
          height="10" width="10"
          style="fill:#646464;stroke:none"/>
    <rect x="546" y="105"
          height="10" width="10"
          style="fill:#646464;stroke:none"/>
    <rect x="546" y="116"
          height="10" width="10"
          style="fill:#646464;stroke:none"/>
    <rect x="557" y="50"
          height="10" width="10"
          style="fill:#646464;stroke:none"/>
    <rect x="557" y="61"
          height="10" width="10"
          style="fill:#646464;stroke:none"/>
    <rect x="557" y="72"
          height="10" width="10"
          style="fill:#646464;stroke:none"/>
    <rect x="557" y="83"
          height="10" width="10"
          style="fill:#646464;stroke:none"/>
    <rect x="557" y="94"
          height="10" width="10"
          style="fill:#646464;stroke:none"/>
    <rect x="557" y="105"
          height="10" width="10"
          style="fill:#646464;stroke:none"/>
    <rect x="557" y="116"
          height="10" width="10"
          style="fill:#646464;stroke:none"/>
    <rect x="568" y="50"
          height="10" width="10"
          style="fill:#646464;stroke:none"/>
    <rect x="568" y="61"
          height="10" width="10"
          style="fill:#646464;stroke:none"/>
    <rect x="568" y="72"
          height="10" width="10"
          style="fill:#646464;stroke:none"/>
    <rect x="568" y="83"
          height="10" width="10"
          style="fill:#646464;stroke:none"/>
    <rect x="568" y="94"
          height="10" width="10"
          style="fill:#646464;stroke:none"/>
    <rect x="568" y="105"
          height="10" width="10"
          style="fill:#646464;stroke:none"/>
    <rect x="568" y="116"
          height="10" width="10"
          style="fill:#646464;stroke:none"/>
    <rect x="579" y="50"
          height="10" width="10"
          style="fill:#646464;stroke:none"/>
    <rect x="579" y="61"
          height="10" width="10"
          style="fill:#646464;stroke:none"/>
    <rect x="579" y="72"
          height="10" width="10"
          style="fill:#646464;stroke:none"/>
    <rect x="579" y="83"
          height="10" width="10"
          style="fill:#646464;stroke:none"/>
    <rect x="579" y="94"
          height="10" width="10"
          style="fill:#646464;stroke:none"/>
    <rect x="579" y="105"
          height="10" width="10"
          style="fill:#646464;stroke:none"/>
    <rect x="579" y="116"
          height="10" width="10"
          style="fill:#646464;stroke:none"/>
    <rect x="590" y="50"
          height="10" width="10"
          style="fill:#646464;stroke:none"/>
    <rect x="590" y="61"
          height="10" width="10"
          style="fill:#646464;stroke:none"/>
    <rect x="590" y="72"
          height="10" width="10"
          style="fill:#646464;stroke:none"/>
    <rect x="590" y="83"
          height="10" width="10"
          style="fill:#646464;stroke:none"/>
    <rect x="590" y="94"
          height="10" width="10"
          style="fill:#646464;stroke:none"/>
    <rect x="590" y="105"
          height="10" width="10"
          style="fill:#646464;stroke:none"/>
    <rect x="590" y="116"
          height="10" width="10"
          style="fill:#646464;stroke:none"/>
    <rect x="601" y="50"
          height="10" width="10"
          style="fill:#646464;stroke:none"/>
    <rect x="601" y="61"
          height="10" width="10"
          style="fill:#646464;stroke:none"/>
    <rect x="601" y="72"
          height="10" width="10"
          style="fill:#646464;stroke:none"/>
    <rect x="601" y="83"
          height="10" width="10"
          style="fill:#646464;stroke:none"/>
    <rect x="601" y="94"
          height="10" width="10"
          style="fill:#646464;stroke:none"/>
    <rect x="601" y="105"
          height="10" width="10"
          style="fill:#646464;stroke:none"/>
    <rect x="601" y="116"
          height="10" width="10"
          style="fill:#646464;stroke:none"/>
    <rect x="612" y="50"
          height="10" width="10"
          style="fill:#646464;stroke:none"/>
    <rect x="612" y="61"
          height="10" width="10"
          style="fill:#646464;stroke:none"/>
    <rect x="612" y="72"
          height="10" width="10"
          style="fill:#646464;stroke:none"/>
    <rect x="612" y="83"
          height="10" width="10"
          style="fill:#646464;stroke:none"/>
    <rect x="612" y="94"
          height="10" width="10"
          style="fill:#646464;stroke:none"/>
    <rect x="612" y="105"
          height="10" width="10"
          style="fill:#646464;stroke:none"/>
    <text x="10" y="150"
          font-size="10.000000"
          fill="#000000"
          font-family="Helvetica"
          font-weight="normal"
          text-anchor="start"
          stroke="none">
    OPEN
    </text>
    <rect x="45" y="141"
          height="10" width="10"
          style="fill:#0000ff;stroke:none"/>
    <text x="70" y="150"
          font-size="10.000000"
          fill="#000000"
          font-family="Helvetica"
          font-weight="normal"
          text-anchor="start"
          stroke="none">
    DONE
    </text>
    <rect x="105" y="141"
          height="10" width="10"
          style="fill:#00ff00;stroke:none"/>
    <text x="130" y="150"
          font-size="10.000000"
          fill="#000000"
          font-family="Helvetica"
          font-weight="normal"
          text-anchor="start"
          stroke="none">
    CANCELLED
    </text>
    <rect x="195" y="141"
          height="10" width="10"
          style="fill:#ff0000;stroke:none"/>
  </g>
</svg>